{
	"easycom": {
		"^tn-(.*)": "@/tuniao-ui/components/tn-$1/tn-$1.vue"
	},
	"pages": [ //pages数组中第一项表示应用启动页，参考：https://uniapp.dcloud.io/collocation/pages
		{
			"path": "pages/index/index",
			"style": {
				"navigationBarTitleText": "主页"
			}
		},
		{
			"path": "pages/comm/comm",
			"style": {
				"navigationBarTitleText": "主页"
			}
		},
		// {
		// 	"path": "pages/discovery/discovery",
		// 	"style": {
		// 		"navigationBarTitleText": "主页"
		// 	}
		// },
		{
			"path": "pages/mine/mine",
			"style": {
				"navigationBarTitleText": "主页"
			}
		}
	],
	"tabBar": {
		"selectedColor": "#3668FC",
		"list": [{
				"text": "首页",
				"iconPath": "static/tabbar/tn-tabbar0.png",
				"selectedIconPath": "static/tabbar/tn-tabbar0-cur.png",
				"pagePath": "pages/index/index"
			},
			{
				"text": "试题",
				"iconPath": "static/tabbar/tn-tabbar1.png",
				"selectedIconPath": "static/tabbar/tn-tabbar1-cur.png",
				"pagePath": "pages/comm/comm"
			},
			// {
			// 	"text": "总览",
			// 	"iconPath": "static/tabbar/tn-tabbar1.png",
			// 	"selectedIconPath": "static/tabbar/tn-tabbar1-cur.png",
			// 	"pagePath": "pages/discovery/discovery"
			// },
			{
				"text": "我的",
				"iconPath": "static/tabbar/tn-tabbar3.png",
				"selectedIconPath": "static/tabbar/tn-tabbar3-cur.png",
				"pagePath": "pages/mine/mine"
			}
		]
	},
	"subPackages": [{ //自定义包开始
			"root": "subpages/user", // 用户包
			"pages": [{
				"path": "set",
				"style": {
					"navigationBarTitleText": "修改信息"
				}
			}, {
				"path": "login",
				"style": {
					"navigationBarTitleText": "用户登录"
				}
			}, {
				"path": "register",
				"style": {
					"navigationBarTitleText": "账号注册"
				}
			},{
				"path": "accountLogin",
				"style": {
					"navigationBarTitleText": "账号登录"
				}
			},{
				"path": "member/describe",
				"style": {
					"navigationBarTitleText": "会员介绍"
				}
			}, {
				"path": "member/content",
				"style": {
					"navigationBarTitleText": "会员权益"
				}
			}]
		}, {
			"root": "subpages/exam", // 试题包
			"pages": [{
				"path": "collection/detail",
				"style": {
					"navigationBarTitleText": "试卷详情"
				}
			}, {
				"path": "reading/list",
				"style": {
					"navigationBarTitleText": "试题列表"
				}
			}, {
				"path": "reading/submit",
				"style": {
					"navigationBarTitleText": "答题列表",
					"navigationStyle": "default"
				}
			}, {
				"path": "reading/submit_result",
				"style": {
					"navigationBarTitleText": "答题结果"
				}
			}, {
				"path": "reading/detail",
				"style": {
					"navigationBarTitleText": "试题详情"
				}
			}, {
				"path": "search/search",
				"style": {
					"navigationBarTitleText": "试题查询"
				}
			},  {
				"path": "search/search1",
				"style": {
					"navigationBarTitleText": "试题查询"
				}
			},{
				"path": "history/list",
				"style": {
					"navigationBarTitleText": "答题历史"
				}
			}, {
				"path": "history/detail",
				"style": {
					"navigationBarTitleText": "答题分析"
				}
			}]
		},
		{
			"root": "subpages/article", // 文章包
			"pages": [{
				"path": "content",
				"style": {
					"navigationBarTitleText": "试卷详情"
				}
			}, {
				"path": "list",
				"style": {
					"navigationBarTitleText": "文章列表"
				}
			}]
		},
		{ // 帮助中心文档
			"root": "subpages/help", // 文档模块
			"pages": [{
				"path": "list",
				"style": {
					"navigationBarTitleText": "文档列表"
				}
			}, {
				"path": "content",
				"style": {
					"navigationBarTitleText": "文档内容"
				}
			}, {
				"path": "about/about",
				"style": {
					"navigationBarTitleText": "关于我们"
				}
			}, {
				"path": "update/update",
				"style": {
					"navigationBarTitleText": "更新进度"
				}
			}]
		}, {
			"root": "subpages/file", // 文件资源
			"pages": [{
				"path": "classify/classify",
				"style": {
					"navigationBarTitleText": "资源分类"
				}
			},{
				"path": "list/list",
				"style": {
					"navigationBarTitleText": "资源列表"
				}
			},{
				"path": "download/download",
				"style": {
					"navigationBarTitleText": "资源下载"
				}
			}]
		}
	],
	"globalStyle": {
		"navigationStyle": "custom",
		"navigationBarTextStyle": "black",
		"navigationBarTitleText": "兔兔找题",
		"navigationBarBackgroundColor": "#F8F8F8",
		"backgroundColor": "#F8F8F8"
	}
}